{
  "appenders": [
    {
      "type": "clustered",
      "appenders": [

        {
          "type": "console"
        },
        {
          "type": "logLevelFilter",
          "level": "TRACE",
            "category": "api",
          "appender": {
            "type": "file",
              "maxLogSize": 20480,
              "backups": 3,
            "filename": "../tutr-rest.log"
          }
        }
      ]
    }
  ]
}